62

Yb     6.4646    3.7324    3.3446
O     5.7487    2.0422    2.1951
C     4.0514    3.8702    5.5938
H     4.1098    4.8523    5.4834
H     3.1496    3.6436    5.9338
N     6.4646    3.7324    6.0492
N     4.3002    3.1943    4.3106
C     4.6630    1.3485    1.9712
C     4.6197    0.4061    0.9123
H     5.3966    0.2710    0.3825
C     3.4814   -0.3197    0.6299
H     3.4811   -0.9268   -0.1008
C     2.3305   -0.1730    1.4043
H     1.5464   -0.6712    1.2054
C     2.3528    0.7092    2.4643
H     1.5774    0.7973    3.0061
C     3.4904    1.4841    2.7686
C     3.4198    2.3398    3.9350
H     2.6434    2.2605    4.4766
C     5.1181    3.3819    6.5573
H     4.9793    3.7971    7.4452
H     5.0474    2.3999    6.6618
C     7.5519    1.5735    5.5938
H     6.6722    1.1330    5.4834
H     8.1990    0.9058    5.9338
N     8.0128    2.1270    4.3106
C    11.9139    2.1048    1.4043
H    12.7373    1.6748    1.2054
C    11.1387    1.6830    2.4643
H    11.4501    0.9674    3.0061
C     9.8989    2.2807    2.7686
C     9.1930    1.7917    3.9350
H     9.6500    1.1590    4.4766
C     7.4415    2.7415    6.5573
H     7.1512    2.4137    7.4452
H     8.3272    3.1712    6.6618
O     8.2863    3.9575    2.1951
C     9.4300    3.3641    1.9712
C    10.2677    3.7977    0.9123
H     9.9963    4.5381    0.3825
C    11.4655    3.1748    0.6299
H    11.9914    3.4781   -0.1008
C     7.7907    5.7534    5.5938
H     8.6120    5.2118    5.4834
H     8.0453    6.6476    5.9338
N     7.0809    5.8758    4.3106
C     5.1496    9.2653    1.4043
H     5.1102   10.1934    1.2054
C     5.9024    8.8049    2.4643
H     6.3665    9.4323    3.0061
C     6.0047    7.4323    2.7686
C     6.7811    7.0655    3.9350
H     7.1006    7.7776    4.4766
C     6.8344    5.0738    6.5573
H     7.2634    4.9863    7.4452
H     6.0194    5.6260    6.6618
O     5.3589    5.1974    2.1951
C     5.3009    6.4846    1.9712
C     4.5065    6.9933    0.9123
H     4.0011    6.3880    0.3825
C     4.4471    8.3420    0.6299
H     3.9214    8.6458   -0.1008
